{
    "app-id": "org.fdroid.Repomaker",
    "runtime": "org.kde.Platform",
    "runtime-version": "5.11",
    "sdk": "org.kde.Sdk",
    "sdk-extensions": [
        "org.freedesktop.Sdk.Extension.openjdk9"
    ],
    "command": "repomaker",
    "finish-args" : [
        "--share=ipc",
        "--socket=x11",
        "--share=network",
        "--device=dri",
        "--socket=wayland",
        "--filesystem=home",
        "--env=PATH=/app/bin:/usr/bin:/app/java-9-openjdk/bin",
        "--env=JAVA_HOME=/app/java-9-openjdk"
    ],
    "modules": [
        "shared-modules/udev/udev-175.json",
        {
            "name": "rsync",
            "no-autogen": true,
            "cleanup": ["/share/man"],
            "sources": [{
                "type": "archive",
                "url": "https://download.samba.org/pub/rsync/rsync-3.1.3.tar.gz",
                "sha256": "55cc554efec5fdaad70de921cd5a5eeb6c29a95524c715f3bbf849235b0800c0"
            }]
        },
        {
            "name": "openssh",
            "config-opts": ["--without-pie"],
            "sources": [
                {
                    "type": "archive",
                    "url": "https://ftp.openbsd.org/pub/OpenBSD/OpenSSH/portable/openssh-7.9p1.tar.gz",
                    "sha256": "6b4b3ba2253d84ed3771c8050728d597c91cfce898713beb7b64a305b6f11aad"
                }
            ]
        },
        {
            "name": "git",
            "no-autogen": true,
            "sources": [{
                "type": "archive",
                "url": "https://mirrors.edge.kernel.org/pub/software/scm/git/git-2.9.5.tar.gz",
                "sha256": "8fa575338137d6d850b52d207cf7155cd1f4003ebd698f0fb75f65efb862ef7f"
            }]
        },
        {
            "name": "PyQt5",
            "cleanup": ["/bin/sip", "/include", "/lib/python3.5/site-packages/*.pyi"],
            "config-opts": ["--disable-static", "--enable-x11"],
            "sources": [
                {
                    "type": "archive",
                    "url": "https://sourceforge.net/projects/pyqt/files/PyQt5/PyQt-5.11.3/PyQt5_gpl-5.11.3.tar.gz",
                    "sha256": "c9b57d15601d436faf35dacf8e0acefa220194829a653e771e80b189b3261073"
                },
                {
                    "type": "shell",
                    "commands": [
                        "python3 configure.py --confirm-license --no-docstrings --assume-shared --no-sip-files --no-qml-plugin --no-tools --no-qsci-api -d ${FLATPAK_DEST}/lib/python3.5/site-packages --sip=${FLATPAK_DEST}/bin/sip --sip-incdir=${FLATPAK_DEST}/include --stubsdir=${FLATPAK_DEST}/lib/python3.5/site-packages --disable=QtSensors --disable=QtQuick --disable=QtQml --disable=QtTest --disable=QtQuickWidgets --disable=QtSql --disable=QtXmlPatterns --disable=QtMultimedia --disable=QtMultimediaWidgets --disable=QtLocation --disable=QtDesigner --disable=QtOpenGL --disable=QtBluetooth --disable=QtNfc --disable=QtPositioning"
                    ]
                }
            ],
            "no-autogen": true,
            "modules": [{
                "name": "sip",
                "no-autogen": true,
                "sources": [
                    {
                        "type": "archive",
                        "url": "https://sourceforge.net/projects/pyqt/files/sip/sip-4.19.13/sip-4.19.13.tar.gz",
                        "sha256": "e353a7056599bf5fbd5d3ff9842a6ab2ea3cf4e0304a0f925ec5862907c0d15e"
                    },
                    {
                        "type": "shell",
                        "commands": [
                            "python3 configure.py --sip-module PyQt5.sip -b ${FLATPAK_DEST}/bin -d ${FLATPAK_DEST}/lib/python3.5/site-packages -e ${FLATPAK_DEST}/include -v ${FLATPAK_DEST}/share/sip --stubsdir=${FLATPAK_DEST}/lib/python3.5/site-packages"
                        ]
                    }
                ]
            }]
        },
        {
            "name": "openjdk",
            "buildsystem": "simple",
            "build-commands": [
                "mkdir -p /app/java-9-openjdk/",
                "cp -ra /usr/lib/sdk/openjdk9/jvm/openjdk-9.0.4/bin /usr/lib/sdk/openjdk9/jvm/openjdk-9.0.4/conf /usr/lib/sdk/openjdk9/jvm/openjdk-9.0.4/include /usr/lib/sdk/openjdk9/jvm/openjdk-9.0.4/lib /app/java-9-openjdk/"
            ]
        },
        {
            "name" : "aapt",
            "buildsystem" : "simple",
            "build-commands" : [
                "ar p aapt_7.0.0+r33-1_amd64.deb data.tar.xz | tar xJ",
                "cp usr/bin/aapt usr/bin/aapt2 /app/bin",
                "ar p android-libaapt_7.0.0+r33-1_amd64.deb data.tar.xz | tar xJ",
                "cp usr/lib/x86_64-linux-gnu/android/libaapt.so usr/lib/x86_64-linux-gnu/android/libaapt.so.0 /app/lib/",
                "ar p android-libutils_7.0.0+r33-1_amd64.deb data.tar.xz | tar xJ",
                "cp usr/lib/x86_64-linux-gnu/android/libutils.so.0 /app/lib/",
                "ar p android-libandroidfw_7.0.0+r33-1_amd64.deb data.tar.xz | tar xJ",
                "cp usr/lib/x86_64-linux-gnu/android/libandroidfw.so.0 /app/lib/",
                "ar p android-liblog_7.0.0+r33-1_amd64.deb data.tar.xz | tar xJ",
                "cp usr/lib/x86_64-linux-gnu/android/liblog.so.0 /app/lib/",
                "ar p android-libcutils_7.0.0+r33-1_amd64.deb data.tar.xz | tar xJ",
                "cp usr/lib/x86_64-linux-gnu/android/libcutils.so.0 /app/lib/",
                "ar p android-libbacktrace_7.0.0+r33-1_amd64.deb data.tar.xz | tar xJ",
                "cp usr/lib/x86_64-linux-gnu/android/libbacktrace.so.0 /app/lib/",
                "ar p android-libziparchive_7.0.0+r33-1_amd64.deb data.tar.xz | tar xJ",
                "cp usr/lib/x86_64-linux-gnu/android/libziparchive.so.0 /app/lib/",
                "ar p android-libbase_7.0.0+r33-1_amd64.deb data.tar.xz | tar xJ",
                "cp usr/lib/x86_64-linux-gnu/android/libbase.so.0 /app/lib/",
                "ar p android-libunwind_7.0.0+r1-4_amd64.deb data.tar.xz | tar xJ",
                "ar p p7zip-full_16.02+dfsg-3+deb9u1_amd64.deb data.tar.xz | tar xJ",
                "cp usr/lib/x86_64-linux-gnu/android/libunwind.so.0 usr/lib/x86_64-linux-gnu/android/lib7z.so /app/lib"
            ],
            "sources" : [
                {
                    "type" : "file",
                    "url" : "http://ftp.debian.org/debian/pool/main/a/android-platform-frameworks-base/aapt_7.0.0+r33-1_amd64.deb",
                    "sha256": "2006d90bb348af338f30e8d5f0ca4579d7cf4d11391de80b92677525c593568b"
                },
                {
                    "type" : "file",
                    "url" : "http://ftp.debian.org/debian/pool/main/a/android-platform-frameworks-base/android-libaapt_7.0.0+r33-1_amd64.deb",
                    "sha256": "046eb951fed712bf27280d0107cfc7eb5d4ba50b60b079b1d1661dbaff90eaf3"
                },
                {
                    "type": "file",
                    "url": "http://ftp.debian.org/debian/pool/main/a/android-platform-system-core/android-libutils_7.0.0+r33-1_amd64.deb",
                    "sha256": "adbb5583bdfa011e8cdef8d85fe5a0737bcf6611f449f761e794aae0463ed489"
                },
                {
                    "type": "file",
                    "url": "http://ftp.debian.org/debian/pool/main/a/android-platform-frameworks-base/android-libandroidfw_7.0.0+r33-1_amd64.deb",
                    "sha256": "948cc995b217d2607adfbacd7ee45a9e777e29eb364766c9f1d3d57799276291"
                },
                {
                    "type": "file",
                    "url": "http://ftp.debian.org/debian/pool/main/a/android-platform-system-core/android-liblog_7.0.0+r33-1_amd64.deb",
                    "sha256": "29a0c1178de6267876e9cadc2a676bab3a0d8b59ea178e0fb25eff0f617dd70c"
                },
                {
                    "type": "file",
                    "url": "http://ftp.debian.org/debian/pool/main/a/android-platform-system-core/android-libcutils_7.0.0+r33-1_amd64.deb",
                    "sha256": "46ce10de01130b1d35e4359cbfac7cc7780b7bababe7cb950419346f40ebbb87"
                },
                {
                    "type": "file",
                    "url": "http://ftp.debian.org/debian/pool/main/a/android-platform-system-core/android-libbacktrace_7.0.0+r33-1_amd64.deb",
                    "sha256": "a67befa0bef158f00b3b5fe340da43af4ee625690b70da302186fd1c1deb8cfb"
                },
                {
                    "type": "file",
                    "url": "http://ftp.debian.org/debian/pool/main/a/android-platform-system-core/android-libziparchive_7.0.0+r33-1_amd64.deb",
                    "sha256": "ced85bae70a1f51fc911cb365a9c71009006c180e503b738345953716666058b"
                },
                {
                    "type": "file",
                    "url": "http://ftp.debian.org/debian/pool/main/a/android-platform-system-core/android-libbase_7.0.0+r33-1_amd64.deb",
                    "sha256": "4bb6a3900d423f9b567bc7b9139c9c908edadd011f36b917880664ee7463243a"
                },
                {
                    "type": "file",
                    "url": "http://ftp.debian.org/debian/pool/main/a/android-platform-external-libunwind/android-libunwind_7.0.0+r1-4_amd64.deb",
                    "sha256": "d5891de063a4a67c890f56311528629942d7bb63113c638b54ce2d67e0fe588f"
                },
                {
                    "type": "file",
                    "url": "http://ftp.debian.org/debian/pool/main/p/p7zip/p7zip-full_16.02+dfsg-3+deb9u1_amd64.deb",
                    "sha256": "a782560e02f99986e7b388bed4a437b61822d0288cfdeb1954189d206498b7e9"
                }
            ]
        },
        "python-deps.json",
        "fdroidserver-deps.json",
        {
            "name": "fdroidserver",
            "buildsystem": "simple",
            "build-commands": [
                "python setup.py sdist",
                "mv dist/fdroidserver-0.8.tar.gz .",
                "pip3 install --no-index --find-links=\"file://${PWD}\" --prefix=${FLATPAK_DEST} fdroidserver"
            ],
            "sources": [
                {
                    "type": "git",
                    "url": "https://gitlab.com/fdroid/fdroidserver.git",
                    "tag": "0.8",
                    "commit": "c67f8e349ce13e9a742b6f1a33fb5c391b3a7279"
                },
                {
                    "type": "patch",
                    "path": "fdroidserver-0.8-allow-flatpak-aapt.patch"
                },
                {
                    "type": "file",
                    "url": "https://files.pythonhosted.org/packages/49/6f/183063f01aae1e025cf0130772b55848750a2f3a89bfa11b385b35d7329d/requests-2.10.0.tar.gz",
                    "sha256": "63f1815788157130cee16a933b2ee184038e975f0017306d723ac326b5525b54"
                },
                {
                    "type": "file",
                    "url": "https://files.pythonhosted.org/packages/9e/7a/109e0a3cc3c19534edd843c16e792c67911b5b4072fdd34ddce90d49f355/docker-pycreds-0.3.0.tar.gz",
                    "sha256": "8b0e956c8d206f832b06aa93a710ba2c3bcbacb5a314449c040b0b814355bbff"
                },
                {
                    "type": "file",
                    "url": "https://files.pythonhosted.org/packages/35/d4/14e446a82bc9172d088ebd81c0b02c5ca8481bfeecb13c9ef07998f9249b/websocket_client-0.54.0.tar.gz",
                    "sha256": "e51562c91ddb8148e791f0155fdb01325d99bb52c4cdbb291aee7a3563fd0849"
                },
                {
                    "type": "file",
                    "url": "https://files.pythonhosted.org/packages/d7/32/1e6be8c9ebc7d02fe74cb1a050008bc9d7e2eb9219f5d5e257648166e275/docker-py-1.9.0.tar.gz",
                    "sha256": "6dc6b914a745786d97817bf35bfc1559834c08517c119f846acdfda9cc7f6d7e"
                }
            ]
        },
        {
            "name" : "repomaker",
            "buildsystem" : "simple",
            "build-commands" : [
                "install -Dm644 org.fdroid.Repomaker.svg /app/share/icons/hicolor/scalable/apps/${FLATPAK_ID}.svg",
                "install -Dm644 org.fdroid.Repomaker.desktop /app/share/applications/${FLATPAK_ID}.desktop",
                "install -Dm644 org.fdroid.Repomaker.appdata.xml /app/share/metainfo/${FLATPAK_ID}.appdata.xml",
                "pip3 install --no-index --find-links=\"file://${PWD}\" --prefix=${FLATPAK_DEST} repomaker",
                "pip3 install --no-deps --no-index --find-links=\"file://${PWD}\" --prefix=${FLATPAK_DEST} pywebview"
            ],
            "sources" : [
                {
                    "type" : "file",
                    "url" : "https://gitlab.com/fdroid/repomaker/raw/1.0.0b1/debian/data/org.fdroid.Repomaker.svg",
                    "sha256": "c6098a7fd5f00b0715777583df93a42910474f7c3d1bbd8679ad6e5a109be192"
                },
                {
                    "type" : "file",
                    "url" : "https://gitlab.com/fdroid/repomaker/raw/1.0.0b1/debian/data/org.fdroid.Repomaker.desktop",
                    "sha256": "70661cb9d77a14d540ad4e1748008147efee97139a50b52fca798231a9babc2b"
                },
                {
                    "type" : "file",
                    "url" : "https://gitlab.com/fdroid/repomaker/raw/9fe645a71dad4572302d530d27e027ffd25107dd/debian/data/org.fdroid.Repomaker.appdata.xml",
                    "sha256": "b55eaf219729e24bc0a6b00f81ca788f7bfeb9a42c42eaa1a057ebbc94f3c000"
                },
                {
                    "type": "file",
                    "url": "https://files.pythonhosted.org/packages/a3/a8/32af11b7893d4d4239df5496a545dc870a7c41b99c5418199a384768920a/pywebview-2.2.1.tar.gz",
                    "sha256": "b680dcc517a8b742b1abec6db626d3795b7a5b589af36c0bc022febc3285904b"
                },
                {
                    "type" : "file",
                    "url" : "https://files.pythonhosted.org/packages/85/91/cc8eb075ebdcf471fc85e345c37f55dd50781baf429074269d05b147940e/repomaker-1.0.0b1.tar.gz",
                    "sha256": "7532a488c9cd0c7e554dde064b965fdddd6cb74e5bebb165fa434b6233ca5178"
                }
            ]
        }
    ]
}
